<svg xmlns="http://www.w3.org/2000/svg" width="38" height="38" viewBox="0 0 38 38">
  <path fill="#F4F4F4" fill-rule="evenodd" d="M1425,96 L1463,96 L1463,134 L1425,134 L1425,96 Z M1453.22372,123.013558 C1453.22372,123.573632 1452.94868,124.16921 1452.39361,124.16921 L1447.72299,124.16921 L1447.72299,117.168288 L1450.09831,117.168288 L1450.45835,114.167893 L1447.72299,114.167893 L1447.72299,112.377157 C1447.72299,111.577052 1447.93802,111.167498 1449.08817,111.167498 L1450.72339,111.167498 L1450.72339,108.551653 C1450.22332,108.516649 1449.44822,108.441639 1448.43309,108.441639 C1446.32281,108.441639 1444.7226,109.731809 1444.7226,112.102121 L1444.7226,114.167893 L1442.22227,114.167893 L1442.22227,117.168288 L1444.7226,117.168288 L1444.7226,124.16921 L1436.06146,124.16921 C1435.50138,124.16921 1435.22135,123.573632 1435.22135,123.013558 L1435.22135,106.681407 C1435.22135,106.121333 1435.50138,105.666773 1436.06146,105.666773 L1452.39361,105.666773 C1452.94868,105.666773 1453.22372,106.121333 1453.22372,106.681407 L1453.22372,123.013558 L1453.22372,123.013558 Z" transform="translate(-1425 -96)"/>
</svg>
