<svg xmlns="http://www.w3.org/2000/svg" width="234" height="46" viewBox="0 0 234 46">
  <path fill="#F4F4F4" fill-rule="evenodd" d="M221.099169,24.2413866 C221.113232,22.8082466 221.422395,21.4717972 222.026666,20.232 C222.645336,18.9626603 223.503994,17.9546704 224.602666,17.208 C225.701338,16.4613296 226.943992,16.088 228.330666,16.088 C229.568006,16.088 230.559996,16.4559963 231.306666,17.192 C232.053336,17.9280037 232.426666,18.925327 232.426666,20.184 C232.426666,21.6560074 231.898671,22.9199947 230.842666,23.976 C229.786661,25.0320053 227.989345,25.8693302 225.450666,26.488 C225.962669,27.4693382 226.82666,27.96 228.042666,27.96 C228.917337,27.96 229.63733,27.7573354 230.202666,27.352 C230.768002,26.9466646 231.423996,26.2640048 232.170666,25.304 C232.426667,24.9839984 232.714664,24.824 233.034666,24.824 C233.312001,24.824 233.530665,24.9519987 233.690666,25.208 C233.850667,25.4640013 233.930666,25.8159978 233.930666,26.264 C233.930666,27.0320038 233.749334,27.6933306 233.386666,28.248 C232.78933,29.1653379 232.005338,29.8799974 231.034666,30.392 C230.063994,30.9040026 228.906673,31.16 227.562666,31.16 C225.514656,31.16 223.925338,30.5466728 222.794666,29.32 C222.287949,28.7702601 221.894778,28.1337606 221.615151,27.4104969 C219.921302,28.5539152 218.669448,29.4090751 217.859555,29.976 L215.811555,31.352 C215.000884,35.7680221 213.939562,39.2399874 212.627555,41.768 C211.315548,44.2960126 209.646232,45.56 207.619555,45.56 C206.53155,45.56 205.646225,45.2240034 204.963555,44.552 C204.280885,43.8799966 203.939555,43.0000054 203.939555,41.912 C203.939555,40.3973258 204.536882,38.7706754 205.731555,37.032 C206.926228,35.2933246 209.166205,33.1546794 212.451555,30.616 L212.643555,29.368 C212.280887,29.9440029 211.806225,30.3866651 211.219555,30.696 C210.632885,31.0053349 210.051558,31.16 209.475555,31.16 C208.152882,31.16 207.096892,30.6800048 206.307555,29.72 C206.031181,29.38387 205.803192,29.0111275 205.623587,28.6017708 C205.056632,29.1603191 204.466253,29.6503937 203.852444,30.072 C202.796439,30.797337 201.596451,31.16 200.252444,31.16 C199.164439,31.16 198.343113,30.8453365 197.788444,30.216 C197.233775,29.5866635 196.956444,28.6746726 196.956444,27.48 C196.956444,26.8826637 197.105776,25.8160077 197.404444,24.28 C197.681779,22.9359933 197.820444,22.0080026 197.820444,21.496 C197.820444,21.154665 197.703112,20.984 197.468444,20.984 C197.191109,20.984 196.80178,21.3413298 196.300444,22.056 C195.799108,22.7706702 195.287113,23.7146608 194.764444,24.888 C194.241775,26.0613392 193.820446,27.2986602 193.500444,28.6 C193.265776,29.6026717 192.993779,30.2799982 192.684444,30.632 C192.375109,30.9840018 191.889781,31.16 191.228444,31.16 C190.417773,31.16 189.847112,30.7333376 189.516444,29.88 C189.37171,29.5064937 189.258652,29.0349009 189.177269,28.4652183 C188.568649,29.0807809 187.932673,29.6163725 187.269333,30.072 C186.213328,30.797337 185.01334,31.16 183.669333,31.16 C182.645328,31.16 181.893335,30.7653373 181.413333,29.976 C180.933331,29.1866627 180.693333,28.0773405 180.693333,26.648 C180.330665,28.0986739 179.78667,29.2133294 179.061333,29.992 C178.335996,30.7706706 177.557337,31.16 176.725333,31.16 C175.765328,31.16 174.981336,30.7173378 174.373333,29.832 C173.76533,28.9466622 173.461333,27.8426733 173.461333,26.52 C173.461333,25.9262777 173.47602,25.350918 173.505396,24.7939187 C172.521697,25.0446507 171.469978,25.1933435 170.350222,25.24 C169.944887,27.032009 169.144895,28.4666613 167.950222,29.544 C166.755549,30.6213387 165.400896,31.16 163.886222,31.16 C162.606216,31.16 161.512893,30.8506698 160.606222,30.232 C159.699551,29.6133302 159.011558,28.7920051 158.542222,27.768 C158.072886,26.7439949 157.838222,25.6346726 157.838222,24.44 C157.838222,22.8186586 158.147552,21.3733397 158.766222,20.104 C159.384892,18.8346603 160.238217,17.8426702 161.326222,17.128 C162.414227,16.4133298 163.619549,16.056 164.942222,16.056 C166.563563,16.056 167.870217,16.6159944 168.862222,17.736 C169.854227,18.8560056 170.435554,20.2373251 170.606222,21.88 C171.54476,21.8200933 172.651507,21.629348 173.926493,21.3077588 C174.141502,20.2162894 174.445114,19.0737104 174.837333,17.88 C175.050667,17.2399968 175.349331,16.7813347 175.733333,16.504 C176.117335,16.2266653 176.725329,16.088 177.557333,16.088 C178.026669,16.088 178.351999,16.1626659 178.533333,16.312 C178.714667,16.4613341 178.805333,16.6853318 178.805333,16.984 C178.805333,17.1546675 178.688001,17.7306618 178.453333,18.712 C178.239999,19.5013373 178.069334,20.2159968 177.941333,20.856 C177.514664,23.0960112 177.301333,24.5893296 177.301333,25.336 C177.301333,25.7840022 177.354666,26.0986658 177.461333,26.28 C177.568,26.4613342 177.738665,26.552 177.973333,26.552 C178.293335,26.552 178.693331,26.2320032 179.173333,25.592 C179.653335,24.9519968 180.16533,23.9813398 180.709333,22.68 C181.253336,21.3786602 181.78133,19.7786762 182.293333,17.88 C182.464001,17.2399968 182.725331,16.7813347 183.077333,16.504 C183.429335,16.2266653 183.957329,16.088 184.661333,16.088 C185.152002,16.088 185.493332,16.1466661 185.685333,16.264 C185.877334,16.3813339 185.973333,16.5999984 185.973333,16.92 C185.973333,17.453336 185.706669,18.9146547 185.173333,21.304 C184.575997,24.0346803 184.277333,25.7199968 184.277333,26.36 C184.277333,26.7653354 184.362665,27.0799989 184.533333,27.304 C184.704001,27.5280011 184.927998,27.64 185.205333,27.64 C185.632002,27.64 186.138663,27.3786693 186.725333,26.856 C187.30793,26.336959 188.085119,25.4970969 189.056924,24.3363886 C189.171156,22.0899976 189.553661,19.9378828 190.204444,17.88 C190.396445,17.2613302 190.711108,16.8080014 191.148444,16.52 C191.58578,16.2319986 192.199107,16.088 192.988444,16.088 C193.415113,16.088 193.713776,16.1413328 193.884444,16.248 C194.055112,16.3546672 194.140444,16.5573318 194.140444,16.856 C194.140444,17.197335 193.980446,17.9653274 193.660444,19.16 C193.44711,20.0133376 193.276445,20.7599968 193.148444,21.4 C193.020443,22.0400032 192.913778,22.8293286 192.828444,23.768 C193.532448,21.9333242 194.321773,20.4400058 195.196444,19.288 C196.071115,18.1359942 196.929773,17.3146691 197.772444,16.824 C198.615115,16.3333309 199.38844,16.088 200.092444,16.088 C201.479118,16.088 202.172444,16.7813264 202.172444,18.168 C202.172444,19.0000042 201.93778,20.5039891 201.468444,22.68 C201.063109,24.5360093 200.860444,25.7626637 200.860444,26.36 C200.860444,27.2133376 201.169774,27.64 201.788444,27.64 C202.215113,27.64 202.721774,27.3786693 203.308444,26.856 C203.795031,26.422495 204.417359,25.7651963 205.175442,24.8840892 C205.30609,23.5647123 205.683459,22.3020239 206.307555,21.096 C207.096892,19.570659 208.147548,18.3440046 209.459555,17.416 C210.771562,16.4879954 212.163548,16.024 213.635555,16.024 C214.104891,16.024 214.419554,16.1146658 214.579555,16.296 C214.739556,16.4773342 214.872888,16.8026643 214.979555,17.272 C215.38489,17.1866662 215.854219,17.144 216.387555,17.144 C216.920891,17.144 217.299554,17.2239992 217.523555,17.384 C217.747556,17.5440008 217.859555,17.8586643 217.859555,18.328 C217.859555,18.5840013 217.848888,18.7866659 217.827555,18.936 C217.742221,19.5973366 217.475557,21.2719866 217.027555,23.96 C216.942221,24.4720026 216.851555,25.031997 216.755555,25.64 C216.659555,26.248003 216.558222,26.8933299 216.451555,27.576 C218.062304,26.3208707 219.611494,25.2093436 221.099169,24.2413866 Z M102.817692,21.3179085 C103.012888,20.1441144 103.287287,18.9981473 103.640889,17.88 C103.83289,17.2613302 104.147553,16.8080014 104.584889,16.52 C105.022225,16.2319986 105.635552,16.088 106.424889,16.088 C106.851558,16.088 107.150221,16.1413328 107.320889,16.248 C107.491557,16.3546672 107.576889,16.5573318 107.576889,16.856 C107.576889,17.197335 107.416891,17.9653274 107.096889,19.16 C106.883555,20.0133376 106.71289,20.7599968 106.584889,21.4 C106.456888,22.0400032 106.350223,22.8293286 106.264889,23.768 C106.968893,21.9333242 107.758218,20.4400058 108.632889,19.288 C109.50756,18.1359942 110.360885,17.3146691 111.192889,16.824 C112.024893,16.3333309 112.782219,16.088 113.464889,16.088 C114.083559,16.088 114.558221,16.2639982 114.888889,16.616 C115.219557,16.9680018 115.384889,17.4853299 115.384889,18.168 C115.384889,18.5733354 115.267557,19.3413277 115.032889,20.472 L115.320889,20.472 C115.790225,20.472 116.190221,20.6373317 116.520889,20.968 C116.851557,21.2986683 117.016889,21.7093309 117.016889,22.2 C117.016889,22.4773347 116.95289,22.7759984 116.824889,23.096 C116.483554,23.8853373 116.003559,24.546664 115.384889,25.08 C114.766219,25.613336 114.083559,25.88 113.336889,25.88 C112.739553,25.88 112.232891,25.6666688 111.816889,25.24 C111.400887,24.8133312 111.192889,24.237337 111.192889,23.512 C111.192889,23.1066646 111.214222,22.6693357 111.256889,22.2 C111.299556,21.858665 111.320889,21.6240006 111.320889,21.496 C111.320889,21.3253325 111.283556,21.1973338 111.208889,21.112 C111.134222,21.0266662 111.043556,20.984 110.936889,20.984 C110.638221,20.984 110.232892,21.3413298 109.720889,22.056 C109.208886,22.7706702 108.696892,23.7146608 108.184889,24.888 C107.672886,26.0613392 107.256891,27.2986602 106.936889,28.6 C106.702221,29.6240051 106.435557,30.306665 106.136889,30.648 C105.838221,30.989335 105.347559,31.16 104.664889,31.16 C103.854218,31.16 103.283557,30.7333376 102.952889,29.88 C102.622221,29.0266624 102.456889,27.6613427 102.456889,25.784 C102.456889,25.4487634 102.462656,25.1155536 102.474189,24.7843703 C101.479807,25.0408787 100.415675,25.1927543 99.281778,25.24 C98.8764426,27.032009 98.0764506,28.4666613 96.881778,29.544 C95.6871054,30.6213387 94.3324522,31.16 92.817778,31.16 C91.5377716,31.16 90.4444492,30.8506698 89.537778,30.232 C88.6311068,29.6133302 87.9431137,28.7920051 87.473778,27.768 C87.0670835,26.8806665 86.8365986,25.9292703 86.7823187,24.9137897 C85.9478187,25.0925997 85.0666045,25.2013359 84.138667,25.24 C83.7333316,27.032009 82.9333396,28.4666613 81.738667,29.544 C80.5439944,30.6213387 79.1893412,31.16 77.674667,31.16 C76.3946606,31.16 75.3013382,30.8506698 74.394667,30.232 C73.6248786,29.7067326 73.0127236,29.0353817 72.5581895,28.2179323 C71.9133154,28.8948769 71.2271075,29.4968964 70.499556,30.024 C69.4542174,30.7813371 68.4195611,31.16 67.395556,31.16 C65.7742146,31.16 64.5368936,30.2106762 63.683556,28.312 C62.7875515,29.4426723 62.0035594,30.1999981 61.331556,30.584 C60.6595526,30.9680019 59.8755605,31.16 58.979556,31.16 C57.6782162,31.16 56.6062269,30.6746715 55.763556,29.704 C55.4658927,29.3611221 55.2208032,28.981645 55.0282869,28.5655673 C54.4424273,29.1391663 53.8264821,29.6413086 53.180445,30.072 C52.0924396,30.797337 50.844452,31.16 49.436445,31.16 C46.2725171,31.16 44.2586972,29.5420045 43.3949601,26.3059781 C43.2954076,26.6948867 43.1308659,27.0222262 42.901334,27.288 C41.9839961,28.4186723 40.9973393,29.346663 39.941334,30.072 C38.8853287,30.797337 37.6853407,31.16 36.341334,31.16 C35.3173289,31.16 34.5653364,30.7653373 34.085334,29.976 C33.6053316,29.1866627 33.365334,28.0773405 33.365334,26.648 C33.0026655,28.0986739 32.458671,29.2133294 31.733334,29.992 C31.007997,30.7706706 30.2293382,31.16 29.397334,31.16 C28.4373292,31.16 27.653337,30.7173378 27.045334,29.832 C26.437331,28.9466622 26.133334,27.8426733 26.133334,26.52 C26.133334,24.919992 26.2399996,23.45334 26.453334,22.12 C26.6666684,20.78666 27.0186649,19.3733408 27.509334,17.88 C27.7226684,17.2399968 28.0213321,16.7813347 28.405334,16.504 C28.7893359,16.2266653 29.3973298,16.088 30.229334,16.088 C30.6986697,16.088 31.0239998,16.1626659 31.205334,16.312 C31.3866682,16.4613341 31.477334,16.6853318 31.477334,16.984 C31.477334,17.1546675 31.3600018,17.7306618 31.125334,18.712 C30.9119996,19.5013373 30.7413346,20.2159968 30.613334,20.856 C30.1866652,23.0960112 29.973334,24.5893296 29.973334,25.336 C29.973334,25.7840022 30.0266668,26.0986658 30.133334,26.28 C30.2400012,26.4613342 30.4106662,26.552 30.645334,26.552 C30.9653356,26.552 31.3653316,26.2320032 31.845334,25.592 C32.3253364,24.9519968 32.8373313,23.9813398 33.381334,22.68 C33.9253367,21.3786602 34.4533314,19.7786762 34.965334,17.88 C35.1360015,17.2399968 35.3973322,16.7813347 35.749334,16.504 C36.1013358,16.2266653 36.6293305,16.088 37.333334,16.088 C37.8240031,16.088 38.165333,16.1466661 38.357334,16.264 C38.549335,16.3813339 38.645334,16.5999984 38.645334,16.92 C38.645334,17.453336 38.37867,18.9146547 37.845334,21.304 C37.2479977,24.0346803 36.949334,25.7199968 36.949334,26.36 C36.949334,26.7653354 37.0346665,27.0799989 37.205334,27.304 C37.3760015,27.5280011 37.5999993,27.64 37.877334,27.64 C38.3040028,27.64 38.8106644,27.3786693 39.397334,26.856 C39.9840036,26.3333307 40.7679958,25.4853392 41.749334,24.312 C42.0053353,24.0133318 42.2933324,23.864 42.613334,23.864 C42.7559573,23.864 42.8830642,23.8978515 42.9946556,23.9655551 C42.9371818,23.3428 42.908445,22.679615 42.908445,21.976 C42.908445,21.0373286 42.9404447,20.0880048 43.004445,19.128 L41.756445,19.128 C41.1164418,19.128 40.6844461,19.0106678 40.460445,18.776 C40.2364439,18.5413322 40.124445,18.1680026 40.124445,17.656 C40.124445,16.4613274 40.6044402,15.864 41.564445,15.864 L43.388445,15.864 C43.7511135,13.5173216 44.3057746,11.373343 45.052445,9.432 C45.7991154,7.49065696 46.7004397,5.94400576 47.756445,4.792 C48.8124503,3.63999424 49.9484389,3.064 51.164445,3.064 C52.0604495,3.064 52.7644424,3.45866272 53.276445,4.248 C53.7884476,5.03733728 54.044445,6.02932736 54.044445,7.224 C54.044445,10.5306832 52.6577922,13.4106544 49.884445,15.864 L53.468445,15.864 C53.80978,15.864 54.0551109,15.9386659 54.204445,16.088 C54.3537791,16.2373341 54.428445,16.5146646 54.428445,16.92 C54.428445,18.3920074 53.2231237,19.128 50.812445,19.128 L46.908445,19.128 C46.8657781,20.194672 46.844445,21.0266637 46.844445,21.624 C46.844445,23.8426778 47.1057757,25.3999955 47.628445,26.296 C48.1511143,27.1920045 48.9777727,27.64 50.108445,27.64 C51.0257829,27.64 51.8364415,27.3626694 52.540445,26.808 C53.1217841,26.3499753 53.790396,25.7028494 54.5462949,24.8666084 C54.6654709,23.5539838 55.0125562,22.3184556 55.587556,21.16 C56.312893,19.6986594 57.3102163,18.5040046 58.579556,17.576 C59.8488957,16.6479954 61.2728814,16.0986675 62.851556,15.928 C63.2568914,11.7893126 64.030217,8.253348 65.171556,5.32 C66.312895,2.386652 67.8115467,0.92 69.667556,0.92 C70.5848939,0.92 71.347553,1.33599584 71.955556,2.168 C72.563559,3.00000416 72.867556,4.25865824 72.867556,5.944 C72.867556,8.33334528 72.2808952,11.127984 71.107556,14.328 C69.9342168,17.528016 68.3662325,20.8133165 66.403556,24.184 C66.4888898,25.4213395 66.6755546,26.306664 66.963556,26.84 C67.2515574,27.373336 67.6195538,27.64 68.067556,27.64 C68.6435589,27.64 69.2302197,27.3840026 69.827556,26.872 C70.3040558,26.4635716 70.9095131,25.837947 71.6439399,24.9951132 C71.6324246,24.8121695 71.626667,24.6271318 71.626667,24.44 C71.626667,22.8186586 71.9359972,21.3733397 72.554667,20.104 C73.1733368,18.8346603 74.0266616,17.8426702 75.114667,17.128 C76.2026724,16.4133298 77.4079937,16.056 78.730667,16.056 C80.3520084,16.056 81.658662,16.6159944 82.650667,17.736 C83.642672,18.8560056 84.2239995,20.2373251 84.394667,21.88 C85.1996075,21.8286208 86.1282774,21.6810007 87.1806953,21.4371364 C87.3184303,20.9730582 87.4907911,20.52868 87.697778,20.104 C88.3164478,18.8346603 89.1697726,17.8426702 90.257778,17.128 C91.3457834,16.4133298 92.5511047,16.056 93.873778,16.056 C95.4951194,16.056 96.801773,16.6159944 97.793778,17.736 C98.785783,18.8560056 99.3671105,20.2373251 99.537778,21.88 C100.4664,21.8207263 101.559695,21.6333641 102.817692,21.3179085 Z M10.254223,31.16 C8.35554684,31.16 6.64356396,30.7333376 5.118223,29.88 C3.59288204,29.0266624 2.38222748,27.7733416 1.486223,26.12 C0.59021852,24.4666584 0.142223,22.4880115 0.142223,20.184 C0.142223,16.9413171 0.73421708,14.082679 1.918223,11.608 C3.10222892,9.13332096 4.71287948,7.22400672 6.750223,5.88 C8.78756652,4.53599328 11.043544,3.864 13.518223,3.864 C15.4168992,3.864 17.128882,4.2906624 18.654223,5.144 C20.179564,5.9973376 21.3902185,7.2506584 22.286223,8.904 C23.1822275,10.5573416 23.630223,12.5359885 23.630223,14.84 C23.630223,18.0826829 23.0382289,20.941321 21.854223,23.416 C20.6702171,25.890679 19.0595665,27.7999933 17.022223,29.144 C14.9848795,30.4880067 12.728902,31.16 10.254223,31.16 Z M10.574223,27.384 C12.2382313,27.384 13.7048833,26.8720051 14.974223,25.848 C16.2435627,24.8239949 17.2195529,23.4000091 17.902223,21.576 C18.5848931,19.7519909 18.926223,17.6880115 18.926223,15.384 C18.926223,12.8453206 18.392895,10.9200066 17.326223,9.608 C16.259551,8.29599344 14.8835648,7.64 13.198223,7.64 C11.5555481,7.64 10.104896,8.1466616 8.846223,9.16 C7.58755004,10.1733384 6.60622652,11.5919909 5.902223,13.416 C5.19821948,15.2400091 4.846223,17.314655 4.846223,19.64 C4.846223,22.1786794 5.379551,24.1039934 6.446223,25.416 C7.512895,26.7280066 8.88888124,27.384 10.574223,27.384 Z M50.300445,6.136 C49.9804434,6.136 49.6231136,6.535996 49.228445,7.336 C48.8337764,8.136004 48.4604468,9.24532624 48.108445,10.664 C47.7564432,12.0826738 47.4631128,13.6559914 47.228445,15.384 C48.487118,14.2959946 49.4311085,13.0746734 50.060445,11.72 C50.6897815,10.3653266 51.004445,9.13333888 51.004445,8.024 C51.004445,6.76532704 50.7697807,6.136 50.300445,6.136 Z M69.315556,4.056 C68.9102206,4.056 68.5048914,4.7759928 68.099556,6.216 C67.6942206,7.6560072 67.3475574,9.53865504 67.059556,11.864 C66.7715546,14.189345 66.5635566,16.6213206 66.435556,19.16 C68.8249013,13.9546406 70.019556,9.77334912 70.019556,6.616 C70.019556,5.80532928 69.9502234,5.17600224 69.811556,4.728 C69.6728886,4.27999776 69.507557,4.056 69.315556,4.056 Z M60.099556,27.928 C60.5048914,27.928 60.9102206,27.7626683 61.315556,27.432 C61.7208914,27.1013317 62.2328862,26.4880045 62.851556,25.592 C62.6382216,24.4399942 62.531556,23.1493405 62.531556,21.72 C62.531556,21.2079974 62.5528891,20.3760058 62.595556,19.224 C61.4222168,19.5866685 60.4462266,20.3706606 59.667556,21.576 C58.8888854,22.7813394 58.499556,24.1199926 58.499556,25.592 C58.499556,27.1493411 59.032884,27.928 60.099556,27.928 Z M77.930667,27.768 C78.6133371,27.768 79.2053312,27.4906694 79.706667,26.936 C80.2080028,26.3813306 80.5439995,25.5813386 80.714667,24.536 C80.0533304,24.0879978 79.5466688,23.501337 79.194667,22.776 C78.8426652,22.050663 78.666667,21.2826707 78.666667,20.472 C78.666667,20.130665 78.6986667,19.789335 78.762667,19.448 L78.602667,19.448 C77.7493294,19.448 77.0400032,19.8586626 76.474667,20.68 C75.9093308,21.5013374 75.626667,22.6586592 75.626667,24.152 C75.626667,25.3253392 75.855998,26.2213302 76.314667,26.84 C76.773336,27.4586698 77.3119972,27.768 77.930667,27.768 Z M93.073778,27.768 C93.7564481,27.768 94.3484422,27.4906694 94.849778,26.936 C95.3511138,26.3813306 95.6871105,25.5813386 95.857778,24.536 C95.1964414,24.0879978 94.6897798,23.501337 94.337778,22.776 C93.9857762,22.050663 93.809778,21.2826707 93.809778,20.472 C93.809778,20.130665 93.8417777,19.789335 93.905778,19.448 L93.745778,19.448 C92.8924404,19.448 92.1831142,19.8586626 91.617778,20.68 C91.0524418,21.5013374 90.769778,22.6586592 90.769778,24.152 C90.769778,25.3253392 90.999109,26.2213302 91.457778,26.84 C91.916447,27.4586698 92.4551082,27.768 93.073778,27.768 Z M121.888,23.128 C121.375997,23.1706669 120.965335,23.021335 120.656,22.68 C120.346665,22.338665 120.192,21.8586698 120.192,21.24 C120.192,20.6639971 120.335999,20.2373347 120.624,19.96 C120.912001,19.6826653 121.333331,19.5226669 121.888,19.48 L128.448,18.84 C128.981336,18.7973331 129.391999,18.9306651 129.68,19.24 C129.968001,19.5493349 130.112,20.0026637 130.112,20.6 C130.112,21.7520058 129.557339,22.3813328 128.448,22.488 L121.888,23.128 Z M156.743111,23.864 C157.020446,23.864 157.23911,23.9919987 157.399111,24.248 C157.559112,24.5040013 157.639111,24.8559978 157.639111,25.304 C157.639111,26.1360042 157.436446,26.7973309 157.031111,27.288 C155.836438,28.7173405 154.679117,29.7199971 153.559111,30.296 C152.439105,30.8720029 151.089786,31.16 149.511111,31.16 C148.401772,31.16 147.377782,31.0213347 146.439111,30.744 C145.50044,30.4666653 144.359118,30.0506694 143.015111,29.496 C141.799105,28.962664 140.625783,28.525335 139.495111,28.184 C138.407106,30.1680099 136.775122,31.16 134.599111,31.16 C133.404438,31.16 132.449781,30.8880027 131.735111,30.344 C131.020441,29.7999973 130.663111,29.1013376 130.663111,28.248 C130.663111,27.2026614 131.164439,26.3333368 132.167111,25.64 C133.169783,24.9466632 134.503103,24.6 136.167111,24.6 L136.583111,24.6 L137.159111,15.288 C137.287112,13.154656 137.671108,11.3946736 138.311111,10.008 C138.951114,8.6213264 139.836439,7.43733824 140.967111,6.456 C141.948449,5.6026624 143.068438,4.95733552 144.327111,4.52 C145.585784,4.08266448 146.919104,3.864 148.327111,3.864 C150.631123,3.864 152.401771,4.46132736 153.639111,5.656 C154.876451,6.85067264 155.495111,8.4079904 155.495111,10.328 C155.495111,11.6293398 155.260447,12.679996 154.791111,13.48 C154.321775,14.280004 153.671115,14.68 152.839111,14.68 C152.241775,14.68 151.772446,14.5360014 151.431111,14.248 C151.089776,13.9599986 150.919111,13.549336 150.919111,13.016 C150.919111,12.823999 150.961777,12.4720026 151.047111,11.96 C151.175112,11.3626637 151.239111,10.8293357 151.239111,10.36 C151.239111,9.46399552 150.97778,8.75466928 150.455111,8.232 C149.932442,7.70933072 149.137783,7.448 148.071111,7.448 C146.193768,7.448 144.743116,8.0613272 143.719111,9.288 C142.695106,10.5146728 142.044446,12.4399869 141.767111,15.064 L141.031111,22.328 C140.924444,23.3520051 140.785779,24.2373296 140.615111,24.984 C141.980451,25.2186678 143.687101,25.5919974 145.735111,26.104 C146.929784,26.4026682 147.847108,26.6159994 148.487111,26.744 C149.127114,26.8720006 149.692442,26.936 150.183111,26.936 C151.420451,26.936 152.481773,26.7280021 153.367111,26.312 C154.252449,25.8959979 155.089774,25.2293379 155.879111,24.312 C156.135112,24.0133318 156.423109,23.864 156.743111,23.864 Z M164.142222,27.768 C164.824892,27.768 165.416886,27.4906694 165.918222,26.936 C166.419558,26.3813306 166.755554,25.5813386 166.926222,24.536 C166.264885,24.0879978 165.758224,23.501337 165.406222,22.776 C165.05422,22.050663 164.878222,21.2826707 164.878222,20.472 C164.878222,20.130665 164.910222,19.789335 164.974222,19.448 L164.814222,19.448 C163.960884,19.448 163.251558,19.8586626 162.686222,20.68 C162.120886,21.5013374 161.838222,22.6586592 161.838222,24.152 C161.838222,25.3253392 162.067553,26.2213302 162.526222,26.84 C162.984891,27.4586698 163.523552,27.768 164.142222,27.768 Z M210.627555,27.928 C211.118224,27.928 211.587553,27.6293363 212.035555,27.032 C212.483557,26.4346637 212.803554,25.5813389 212.995555,24.472 L214.019555,19 C213.144884,19.0213334 212.334225,19.3573301 211.587555,20.008 C210.840885,20.6586699 210.243557,21.517328 209.795555,22.584 C209.347553,23.650672 209.123555,24.7813274 209.123555,25.976 C209.123555,26.6373366 209.256887,27.1279984 209.523555,27.448 C209.790223,27.7680016 210.158219,27.928 210.627555,27.928 Z M207.971555,42.456 C208.504891,42.456 209.107552,41.8160064 209.779555,40.536 C210.451558,39.2559936 211.096885,37.2186806 211.715555,34.424 C210.07288,35.832007 208.888892,37.1013277 208.163555,38.232 C207.438218,39.3626723 207.075555,40.3546624 207.075555,41.208 C207.075555,41.5706685 207.144888,41.8693322 207.283555,42.104 C207.422222,42.3386678 207.651553,42.456 207.971555,42.456 Z M227.786666,19.224 C226.997329,19.224 226.330669,19.6826621 225.786666,20.6 C225.242663,21.5173379 224.970666,22.6266602 224.970666,23.928 L224.970666,23.992 C226.229339,23.6933318 227.221329,23.2453363 227.946666,22.648 C228.672003,22.0506637 229.034666,21.3573373 229.034666,20.568 C229.034666,20.1626646 228.922667,19.8373346 228.698666,19.592 C228.474665,19.3466654 228.170668,19.224 227.786666,19.224 Z"/>
</svg>
